[
    {
        "id": "c8fabf68-8374-48fe-a7ea-a00ccd07afff",
        "title": "ABCD Android",
        "module": "Android",
        "time": 240,
        "img": "http://localhost:8080/assets/android.png"
    },
    {
        "id": "a460afed-e5e7-4e39-a39d-c885c05db861",
        "title": "Kotlin for Android",
        "module": "Android",
        "time": 240,
        "img": "http://localhost:8080/assets/android-kotlin.png"
    },
    {
        "id": "fcd1e6fa-a63f-4f75-9da4-b560020b6acc",
        "title": "Developer Tools",
        "module": "Android",
        "time": 180,
        "img": "http://localhost:8080/assets/android-config.png"
    },
    {
        "id": "c30968db-cb1d-442e-ad0f-80e37c077f89",
        "title": "Native User Interface",
        "module": "Android",
        "time": 240,
        "img": "http://localhost:8080/assets/android-view.png"
    },
    {
        "id": "78ee5f25-b84f-45f7-bf33-6c7b30f1b502",
        "title": "Interactive User Interface",
        "module": "Android",
        "time": 240,
        "img": "http://localhost:8080/assets/android-navigation.png"
    },
    {
        "id": "cef179f2-7cbc-41d6-94ca-ecd23d9f7fd6",
        "title": "Adapter of Data List",
        "module": "Android",
        "time": 240,
        "img": "http://localhost:8080/assets/android-adapter-list.png"
    },
    {
        "id": "bbcee412-be64-4a0c-bf1e-315977acd924",
        "title": "User Preference",
        "module": "Android",
        "time": 240,
        "img": "http://localhost:8080/assets/android-bdd.png"
    }
    ,
     {
        "id": "bbcee412-be64-4a0c-bf1e-315977acd924",
        "title": "Data Base",
        "module": "Client DB",
        "time": 240,
        "img": "http://localhost:8080/assets/android-bdd.png"
    }
    ,
    {
        "id": "bbcee412-be64-4a0c-bf1e-315977acd924",
        "title": "Client Serveur Architecture",
        "module": "Client DB",
        "time": 240,
        "img": "http://localhost:8080/assets/bdd-client.png"
    }
]
